{
  "status":"ok",
  "source":"business-insider",
  "sortBy":"top",
  "articles":[
    {
      "author":"Alex Heath",
      "title":"LIVE: Facebook crushes Q3 earnings as stock trades at all-time high",
      "description":"Facebook crushed its...",
      "url":"http://www.businessinsider.com/facebook-q3-earning-results-2017-11",
      "urlToImage":"http://static6.businessinsider.com/image/59fa242658a0c12b0e8b4f8c-1190-625/live-facebook-crushes-q3-earnings-as-stock-trades-at-all-time-high.jpg",
      "publishedAt":"2017-11-01T19:51:58Z"
    },
    {
      "author":"Natasha Bertrand",
      "title":"NY publicist says Manafort wanted to pay him for Ukraine work via offshore accounts — to make 'way more money'",
      "description":"A prominent New York publicist says Paul...",
      "url":"http://www.businessinsider.com/manafort-and-gates-approached-ronn-torossian-for-ukraine-lobbying-work-2017-10",
      "urlToImage":"http://static4.businessinsider.com/image/59f914604d05ac20008b4833-1190-625/ny-publicist-says-manafort-wanted-to-pay-him-for-ukraine-work-via-offshore-accounts--to-make-way-more-money.jpg",
      "publishedAt":"2017-11-01T18:31:14Z"
    },
    {
      "author":"Michelle Mark",
      "title":"The New York attacker had been planning for weeks and did it 'in the name of ISIS,' NYPD says",
      "description":"The man who carried out an attack that killed...",
      "url":"http://www.businessinsider.com/sayfullo-saipov-nyc-terror-attack-isis-planned-2017-11",
      "urlToImage":"http://static6.businessinsider.com/image/59f9f3354d05ac26008b4e12-1190-625/the-new-york-attacker-had-been-planning-for-weeks-and-did-it-in-the-name-of-isis-nypd-says.jpg",
      "publishedAt":"2017-11-01T16:26:51Z"
    },
    {
      "author":"Akin Oyedele",
      "title":"Fed leaves interest rates unchanged, says the economy is solid despite hurricanes",
      "description":"The Federal Reserve left its benchmark interest...",
      "url":"http://www.businessinsider.com/fed-statement-november-2017-11",
      "urlToImage":"http://static3.businessinsider.com/image/59fa043858a0c19d378b4728-1190-625/fed-leaves-interest-rates-unchanged-says-the-economy-is-solid-despite-hurricanes.jpg",
      "publishedAt":"2017-11-01T18:00:00Z"
    },
    {
      "author":"Cheng Cheng and Lauren Lyons Cole",
      "title":"How much money you need to save to retire by age 40",
      "description":"To retire early, figure out how much you spend each year and then divide by 4%.",
      "url":"http://www.businessinsider.com/how-to-retire-early-invest-money-2017-10",
      "urlToImage":"http://static4.businessinsider.com/image/59f8931a3e9d2520008b6fd5-1190-625/how-much-money-you-need-to-save-to-retire-by-age-40.jpg",
      "publishedAt":"2017-10-31T00:00:00Z"
    },
    {
      "author":"Akin Oyedele",
      "title":"Here come Tesla earnings ...",
      "description":"Tesla is set to report third-quarter earnings...",
      "url":"http://www.businessinsider.com/tesla-earnings-q3-2017-11",
      "urlToImage":"http://static2.businessinsider.com/image/59baca9d9803c578288b58d9-1190-625/here-come-tesla-earnings-.jpg",
      "publishedAt":"2017-11-01T19:52:39Z"
    },
    {
      "author":"Maxwell Tani",
      "title":"Trump unloads after New York attack, says he'll terminate diversity visa program and may send suspect to Guantanamo Bay",
      "description":"President Donald Trump railed against a US visa...",
      "url":"http://www.businessinsider.com/trump-nyc-attack-suspect-guantanamo-bay-sayfullo-saipov-2017-11",
      "urlToImage":"http://static4.businessinsider.com/image/59fa009758a0c131008b4f3d-1190-625/trump-unloads-after-new-york-attack-says-hell-terminate-diversity-visa-program-and-may-send-suspect-to-guantanamo-bay.jpg",
      "publishedAt":"2017-11-01T17:36:30Z"
    },
    {
      "author":"Steven Tweedie",
      "title":"Facebook, Twitter, and Google are testifying on Russian election meddling — watch it live",
      "description":"On Wednesday, top lawyers for Facebook...",
      "url":"http://www.businessinsider.com/how-to-watch-senate-intelligence-committee-house-hearings-facebook-twitter-google-2017-11",
      "urlToImage":"http://static5.businessinsider.com/image/59fa13a94d05ac20008b50ad-1190-625/facebook-twitter-and-google-are-testifying-on-russian-election-meddling--watch-it-live.jpg",
      "publishedAt":"2017-11-01T14:24:13Z"
    },
    {
      "author":"Akin Oyedele",
      "title":"Something odd is happening to one of the most attractive trades of 2017",
      "description":"There's a slowdown in the emerging-markets...",
      "url":"http://www.businessinsider.com/emerging-markets-carry-trade-treasury-yields-2017-11",
      "urlToImage":"http://static2.businessinsider.com/image/59e75de090992439008b4aa9-1190-625/something-odd-is-happening-to-one-of-the-most-attractive-trades-of-2017.jpg",
      "publishedAt":"2017-11-01T15:23:37Z"
    },
    {
      "author":"Reuters",
      "title":"Bill Ackman has ended his disastrous short bet against Herbalife",
      "description":"The activist investor William Ackman, who...",
      "url":"http://www.businessinsider.com/r-ackman-exits-years-long-herbalife-short-bet-turns-to-options-2017-11",
      "urlToImage":"http://static6.businessinsider.com/image/59f9f2014d05ac1e008b4e0a-1190-625/bill-ackman-has-ended-his-disastrous-short-bet-against-herbalife.jpg",
      "publishedAt":"2017-11-01T16:13:00Z"
    }
  ]
}